Name,Country,State,Age,Sex,Division,Equipment,BodyweightKg,WeightClassKg,Squat1Kg,Squat2Kg,Squat3Kg,Best3SquatKg,Bench1Kg,Bench2Kg,Bench3Kg,Bench4Kg,Best3BenchKg,Deadlift1Kg,Deadlift2Kg,Deadlift3Kg,Best3DeadliftKg,TotalKg,Place,Event
Ryan Hagen,USA,CA,33,M,Open,Raw,77.93,90,165,-175,-175,165,-120,-120,-120,,,185,200,-227.5,200,,DQ,SBD
John Gaglione,USA,NY,31,M,Open,Multi-ply,98.88,110,335,352.5,-365,352.5,-212.5,-212.5,-212.5,,,262.5,277.5,-295,277.5,,DQ,SBD
Margarito Alvarado,USA,CA,27,M,Open,Single-ply,99.43,110,182.5,-200,200,200,142.5,157.5,-170,,157.5,215,245,-270,245,602.5,1,SBD
Jeremy Oleson,USA,NV,22,M,Open,Wraps,131.9,110+,400,410,,410,225,227.5,232.5,,232.5,380,-397.5,-397.5,380,1022.5,1,SBD
Chris Bridgeford,USA,WA,,M,Open,Wraps,123.74,110+,350,370,382.5,382.5,205,220,227.5,,227.5,365,390,-410,390,1000,2,SBD
Andy Huang #1,USA,CA,33,M,Open,Raw,122.65,110+,357.5,375,-382.5,375,217.5,230,237.5,,237.5,352.5,377.5,-387.5,377.5,990,3,SBD
Daniel Bell #1,USA,IL,31,M,Open,Wraps,176.63,110+,410,-455,-455,410,-235,260,-272.5,,260,365,-390,,365,1035,4,SBD
Tony Montgomery,USA,OR,32,M,Open,Wraps,114.4,110+,340,355,-365,355,215,227.5,232.5,,232.5,305,322.5,-327.5,322.5,910,5,SBD
Marcus Sannadan,USA,CA,27,M,Open,Wraps,138.35,110+,365,385,395,395,227.5,240,245,,245,267.5,285,,285,925,6,SBD
Robert Dicochea,USA,CA,31,M,Open,Wraps,156.85,110+,352.5,385,-410,385,180,195,-205,,195,320,350,365,365,945,7,SBD
Patrick Jeffries,USA,IL,32,M,Open,Raw,132.9,110+,330,345,352.5,352.5,202.5,215,-227.5,,215,312.5,-327.5,,312.5,880,8,SBD
Jesse Anderson,USA,NV,24,M,Open,Wraps,149.5,110+,-390,-390,390,390,182.5,,,,182.5,320,335,-350,335,907.5,9,SBD
Zachary Langdon,USA,CA,29,M,Open,Raw,124.01,110+,285,305,320,320,190,200,-210,,200,320,-327.5,,320,840,10,SBD
Steve Gentili,USA,IN,33,M,Open,Wraps,131.18,110+,337.5,352.5,365,365,250,-272.5,-272.5,,250,227.5,,,227.5,842.5,11,SBD
Mason Clemens,USA,CA,25,M,Open,Wraps,111.13,110+,250,-265,265,265,160,170,175,,175,265,280,-290,280,720,12,SBD
Bill Rowe,USA,MO,40,M,Open,Wraps,175.09,110+,347.5,377.5,-400,377.5,207.5,215,-227.5,,215,225,,,225,817.5,13,SBD
Daniel Mills,USA,OR,30,M,Open,Wraps,115.03,110+,205,220,-230,220,150,160,167.5,,167.5,220,237.5,-255,237.5,625,14,SBD
Vincent Reyes,USA,CA,24,M,Open,Raw,110.5,110+,185,205,-215,205,140,150,155,,155,185,200,215,215,575,15,SBD
Andrew Del Real,USA,CA,33,M,Open,Raw,157.22,110+,182.5,195,207.5,207.5,167.5,172.5,-177.5,,172.5,215,230,242.5,242.5,622.5,16,SBD
Marshall Huss,USA,CA,34,M,Open,Raw,115.94,110+,180,185,192.5,192.5,100,-105,107.5,,107.5,210,217.5,-227.5,217.5,517.5,17,SBD
Logan Brown,USA,CA,32,M,Open,Wraps,140.61,110+,-342.5,,,,-205,,,,,,,,,,DQ,SBD
Andrew Herbert,USA,CA,36,M,Open,Raw,109.04,110,340,360,-380,360,175,190,207.5,,207.5,350,370,390,390,957.5,1,SBD
Anthony Cooper #1,UK,,23,M,Open,Wraps,108.86,110,330,350,360,360,230,240,245,,245,305,317.5,322.5,322.5,927.5,2,SBD
Tomi Luhtanen,Finland,,27,M,Open,Wraps,95.98,110,295,315,330,330,155,162.5,,,162.5,290,310,325,325,817.5,3,SBD
Evan Snydman,USA,CA,32,M,Open,Raw,109.95,110,305,320,327.5,327.5,182.5,190,,,190,312.5,327.5,337.5,337.5,855,4,SBD
Bryan Cain,USA,WA,29,M,Open,Wraps,107.86,110,282.5,295,312.5,312.5,175,187.5,205,,205,275,300,307.5,307.5,825,5,SBD
Louie Loniewski,USA,WA,29,M,Open,Wraps,99.52,110,282.5,302.5,310,310,172.5,182.5,187.5,,187.5,265,280,-290,280,777.5,6,SBD
Emilio Paez,USA,CA,38,M,Open,Wraps,109.77,110,272.5,285,292.5,292.5,182.5,190,-195,,190,292.5,305,317.5,317.5,800,7,SBD
Vincent Vitale,USA,CA,34,M,Open,Raw,109.13,110,230,237.5,250,250,172.5,177.5,182.5,,182.5,265,275,285,285,717.5,8,SBD
Zach Pressly,USA,OR,20,M,Open,Wraps,99.88,110,250,-272.5,-272.5,250,140,147.5,157.5,,157.5,232.5,250,272.5,272.5,680,9,SBD
Jonathan Vicente,USA,CA,31,M,Open,Wraps,104.6,110,245,262.5,-272.5,262.5,155,165,-172.5,,165,245,255,265,265,692.5,10,SBD
Chris Beck,USA,CA,25,M,Open,Wraps,103.87,110,215,225,230,230,160,-167.5,-167.5,,160,-275,280,-290,280,670,11,SBD
Jared Greenstein,USA,CA,26,M,Open,Raw,108.41,110,-200,212.5,220,220,137.5,145,155,,155,237.5,255,262.5,262.5,637.5,12,SBD
Michael Alzheimer,USA,CA,27,M,Open,Raw,107.14,110,195,200,205,205,172.5,177.5,-182.5,,177.5,235,240,250,250,632.5,13,SBD
Riley Corbett,USA,CA,25,M,Open,Wraps,97.16,110,212.5,220,-227.5,220,127.5,135,-140,,135,225,242.5,250,250,605,14,SBD
Brandon Matacic,USA,OR,25,M,Open,Wraps,103.69,110,195,210,215,215,132.5,140,145,,145,207.5,217.5,227.5,227.5,587.5,15,SBD
Aaron Hart,USA,CA,30,M,Open,Raw,98.52,110,175,182.5,192.5,192.5,110,115,122.5,,122.5,225,235,-245,235,550,16,SBD
Joe Uva,USA,CA,38,M,Open,Raw,99.88,110,165,177.5,187.5,187.5,122.5,-130,-130,,122.5,210,222.5,232.5,232.5,542.5,17,SBD
Matthew Loller,USA,CA,22,M,Open,Raw,106.59,110,215,222.5,230,230,140,150,155,,155,145,,,145,530,18,SBD
Joshua Riegler,USA,CA,26,M,Open,Raw,99.97,110,142.5,152.5,162.5,162.5,117.5,127.5,-137.5,,127.5,200,217.5,227.5,227.5,517.5,19,SBD
Christopher Henry,USA,CA,28,M,Open,Raw,97.34,110,152.5,160,172.5,172.5,102.5,107.5,-110,,107.5,-205,227.5,230,230,510,20,SBD
Mike Blumberg,USA,CA,36,M,Open,Raw,106.23,110,155,170,-182.5,170,115,125,132.5,,132.5,187.5,210,222.5,222.5,525,21,SBD
Julius Maddox,USA,KY,31,M,Open,Raw,200.03,110+,,,,,325,-328,-328,,325,,,,,325,1,B
John Reynolds,USA,CA,32,M,Open,Raw,143.15,110+,,,,,182.5,207.5,-220,,207.5,,,,,207.5,2,B
Jeremy Hoornstra,USA,FL,37,M,Open,Raw,109.86,110,,,,,282.5,-305.5,-305.5,,282.5,,,,,282.5,1,B
Kevin Ogar,USA,CO,32,M,Open,Raw,94.8,110,,,,,165,172.5,-182.5,,172.5,,,,,172.5,2,B
David Saldivar,USA,CA,33,M,Open,Raw,133.45,110+,,,,,165,175,-180,,175,250,267.5,277.5,277.5,452.5,1,BD
Erin Paxton,USA,CA,27,F,Open,Raw,80.2,75+,120,125,130,130,57.5,62.5,65,,65,140,145,152.5,152.5,347.5,1,SBD
Sara Schiff,USA,CA,43,F,Open,Wraps,109.04,75+,205,227.5,,227.5,120,-132.5,-132.5,,120,250,272.5,-285,272.5,620,1,SBD
Rochelle Lira,USA,CO,33,F,Open,Raw,76.29,75+,120,132.5,137.5,137.5,82.5,87.5,92.5,,92.5,142.5,150,160,160,390,2,SBD
Gayla Ha-Cabebe,USA,HI,21,F,Open,Raw,93.08,75+,155,170,175,175,80,87.5,92.5,,92.5,132.5,145,155,155,422.5,3,SBD
Tina Michaud #1,USA,CA,33,F,Open,Raw,82.28,75+,137.5,-140,-140,137.5,75,-77.5,-77.5,,75,162.5,167.5,-170,167.5,380,4,SBD
Christolyn Lamoreaux,USA,CA,24,F,Open,Raw,82.55,75+,115,122.5,132.5,132.5,47.5,52.5,,,52.5,132.5,147.5,-155,147.5,332.5,5,SBD
Jessica Adams,USA,CA,27,F,Open,Raw,86.73,75+,127.5,135,140,140,55,60,62.5,,62.5,125,132.5,140,140,342.5,6,SBD
Janna Mordan,USA,CA,40,F,Open,Raw,86,75+,92.5,97.5,102.5,102.5,47.5,-52.5,-55,,47.5,147.5,152.5,160,160,310,7,SBD
Diane Anderson,USA,CA,60,F,Open,Wraps,99.25,75+,110,115,120,120,57.5,60,62.5,,62.5,135,142.5,147.5,147.5,330,8,SBD
Carrie Hilderbrand,USA,CA,30,F,Open,Wraps,137.8,75+,127.5,137.5,142.5,142.5,62.5,-67.5,67.5,,67.5,142.5,150,155,155,365,9,SBD
Sandra Laines,USA,CA,62,F,Open,Wraps,100.33,75+,110,117.5,122.5,122.5,60,65,67.5,,67.5,117.5,125,132.5,132.5,322.5,10,SBD
Allsun Howe,USA,CA,37,F,Open,Wraps,80.65,75+,95,100,-110,100,65,70,-72.5,,70,-100,110,-120,110,280,11,SBD
Marilyn Doss,USA,CA,54,F,Open,Raw,101.79,75+,75,80,85,85,52.5,55,-57.5,,55,82.5,87.5,92.5,92.5,232.5,12,SBD
Kristy Hawkins,USA,CA,38,F,Open,Raw,74.03,75,225,240,-245,240,145,150.5,-153,,150.5,240,253,-260,253,643.5,1,SBD
Emily Hu #1,USA,CA,36,F,Open,Raw,55.16,75,140,150,162.5,162.5,117.5,122.5,126,-130,126,180,190,-192.5,190,478.5,2,SBD
Tiffany Leung,USA,CA,27,F,Open,Wraps,44,75,130,137.5,140,140,62.5,65,67.5,,67.5,152.5,157.5,-160,157.5,365,3,SBD
Stacia-Al Mahoe,USA,HI,22,F,Open,Raw,47.63,75,115,127.5,,127.5,80,85,87.5,,87.5,155,172.5,-177.5,172.5,387.5,4,SBD
Desiree Eay,USA,,33,F,Open,Raw,55.43,75,130,142.5,147.5,147.5,87.5,92.5,-95,,92.5,155,170,-182.5,170,410,5,SBD
Lacey Mesley,Canada,BC,32,F,Open,Wraps,80.38,75+,210,220,-227.5,220,100,110,117.5,,117.5,205,-220,-220,205,542.5,6,SBD
Megan John,USA,CO,39,F,Open,Raw,54.98,75,140,145,155,155,75,80,-87.5,,80,142.5,150,160,160,395,7,SBD
Brianny Terry,USA,WA,22,F,Open,Raw,74.84,75,160,-175,175,175,92.5,100,-107.5,,100,205,227.5,,227.5,502.5,8,SBD
Laurie Smith,USA,CA,46,F,Open,Wraps,77.38,75+,187.5,192.5,200,200,90,95,97.5,,97.5,175,182.5,-190,182.5,480,9,SBD
Michelle Leu,USA,CA,27,F,Open,Raw,59.96,75,112.5,120,125,125,72.5,75,77.5,,77.5,162.5,172.5,180,180,382.5,10,SBD
Amy Zager,USA,CA,30,F,Open,Raw,66.95,75,122.5,127.5,135,135,72.5,75,77.5,,77.5,147.5,152.5,157.5,157.5,370,11,SBD
Svetlana Gelfand,USA,CA,34,F,Open,Raw,70.22,75,105,110,117.5,117.5,60,67.5,72.5,,72.5,150,162.5,170,170,360,12,SBD
Harmony Younes,USA,CA,43,F,Open,Raw,61.6,75,100,105,110,110,65,67.5,70,,70,120,125,-130,125,305,13,SBD
Zeba Kamin,USA,CA,34,F,Open,Raw,65.59,75,90,97.5,102.5,102.5,37.5,40,42.5,,42.5,130,132.5,140,140,285,14,SBD
Orly Jumalon,USA,CA,27,F,Open,Raw,51.17,75,82.5,87.5,92.5,92.5,35,37.5,40,,40,85,92.5,95,95,227.5,15,SBD
Shayri Roy Choudhury,USA,CA,35,F,Open,Raw,57.79,75,65,70,72.5,72.5,35,37.5,-40,,37.5,85,90,95,95,205,16,SBD
Katrishia Lee,USA,NV,28,F,Open,Wraps,55.7,75,-140,140,142.5,142.5,82.5,87.5,-92.5,,87.5,-182.5,-182.5,-182.5,,,DQ,SBD
Tyler Araujo,USA,CA,10,M,Open,Raw,57.79,90,45,50,57.5,57.5,30,-35,37.5,,37.5,70,77.5,85,85,180,1,SBD
Ethan Aboumrad,USA,CA,19,M,Open,Wraps,96.52,110,165,175,185,185,125,132.5,137.5,,137.5,210,220,230,230,552.5,1,SBD
John Stott,USA,CA,53,M,Open,Wraps,91.17,110,180,187.5,192.5,192.5,80,82.5,85,,85,187.5,197.5,-200,197.5,475,2,SBD
Jeremy Avilla,USA,CA,30,M,Open,Wraps,89.95,90,307.5,332.5,-342.5,332.5,175,185,-192.5,,185,365,390,-410,390,907.5,1,SBD
Shawn Graves,USA,CA,22,M,Open,Wraps,89.81,90,292.5,312.5,-320,312.5,172.5,182.5,187.5,,187.5,307.5,-320,-320,307.5,807.5,2,SBD
Steven Granzella,USA,CA,31,M,Open,Wraps,81.47,90,222.5,235,245,245,170,180,185,,185,222.5,237.5,252.5,252.5,682.5,3,SBD
Tony Rodgers,USA,FL,29,M,Open,Raw,85.91,90,225,245,-252.5,245,162.5,172.5,180,,180,205,220,230,230,655,4,SBD
Michael Hernandez,USA,CA,39,M,Open,Raw,66.22,90,177.5,-190,-190,177.5,147.5,155,160,,160,187.5,-200,200,200,537.5,5,SBD
Jackson Woods,USA,WA,21,M,Open,Raw,89.18,90,192.5,207.5,217.5,217.5,130,140,147.5,,147.5,257.5,277.5,285,285,650,6,SBD
Abi Sekhar,USA,CA,27,M,Open,Raw,70.13,90,150,160,165,165,120,127.5,130,,130,205,-215,220,220,515,7,SBD
Kris Gallegos,USA,CA,36,M,Open,Raw,80.38,90,170,175,-180,175,135,140,-147.5,,140,215,225,235,235,550,8,SBD
Jason Lai,USA,CA,27,M,Open,Raw,82.37,90,160,170,-175,170,112.5,117.5,-120,,117.5,230,-240,-240,230,517.5,9,SBD
Jonathan Hurley,USA,CA,23,M,Open,Raw,80.47,90,170,-180,180,180,95,100,-105,,100,210,220,227.5,227.5,507.5,10,SBD
Joshua Kim,USA,CA,24,M,Open,Raw,89.54,90,167.5,172.5,182.5,182.5,140,145,155,,155,167.5,182.5,195,195,532.5,11,SBD
Jordan Pilkington,USA,NV,24,M,Open,Raw,89.45,90,175,-185,185,185,110,115,120,,120,185,200,215,215,520,12,SBD
Joel Paniagua,USA,NV,21,M,Open,Raw,87,90,145,157.5,170,170,112.5,125,130,,130,185,202.5,207.5,207.5,507.5,13,SBD
Joy McDonell,USA,CO,37,F,Open,Raw,73.84,75,,,,,82.5,87.5,92.5,,92.5,,,,,92.5,1,B
Kevin Costa,USA,CA,29,M,Open,Multi-ply,88.54,90,,,,,240,250,-255,,250,,,,,250,1,B
Alisha Narvaez,USA,CA,16,F,Open,Raw,54.79,75,,,,,,,,,,115,-120,-120,115,115,1,D
Alexia Orozco,USA,CA,10,F,Open,Raw,22.95,75,,,,,,,,,,45,-47.5,-47.5,45,45,1,D
Jessica Smith,USA,CA,26,F,Open,Raw,101.6,75+,,,,,92.5,100,-105,,100,175,185,195,195,295,1,BD
Abraham Mathew,USA,CA,32,M,Open,Raw,78.93,90,,,,,60,65,70,,70,90,95,100,100,170,1,BD
