Division,WeightClassKg,Place,Name,Team,BodyweightKg,Best3SquatKg,Best3BenchKg,Best3DeadliftKg,TotalKg,Equipment,Event,Sex
Boys,51.71,1,Davious Murrelle,Greenville,48.72,156.49,74.84,151.95,383.29,Single-ply,SBD,M
Boys,51.71,2,Jaden Brown,Paris North Lamar,51.71,120.2,65.77,151.95,337.93,Single-ply,SBD,M
Boys,51.71,3,Raul Cantu,Tyler,50.62,124.74,70.31,136.08,331.12,Single-ply,SBD,M
Boys,51.71,4,Jose Lopez,Kaufman,48.9,129.27,70.31,129.27,328.85,Single-ply,SBD,M
Boys,51.71,5,Steven Cantu,Brownsboro,48.81,106.59,56.7,111.13,274.42,Single-ply,SBD,M
Boys,51.71,6,Trenton Johnson,Sulphur Springs,51.62,90.72,54.43,124.74,269.89,Single-ply,SBD,M
Boys,51.71,7,Roman Colsten,Commerce,41.37,92.99,49.9,102.06,244.94,Single-ply,SBD,M
Boys,51.71,8,Weston Romans,Paris North Lamar,51.62,81.65,36.29,97.52,215.46,Single-ply,SBD,M
Boys,51.71,9,Austin McCain,Sulphur Springs,38.28,65.77,38.56,70.31,174.63,Single-ply,SBD,M
Boys,55.79,1,AJ Polk,Fairfield,54.16,136.08,77.11,149.69,362.87,Single-ply,SBD,M
Boys,55.79,2,Alex Rodriguez,Sulphur Springs,54.25,136.08,68.04,156.49,360.61,Single-ply,SBD,M
Boys,55.79,3,Blayce Lassiter,Paris North Lamar,55.79,145.15,65.77,145.15,356.07,Single-ply,SBD,M
Boys,55.79,4,Jesus Barrientos,Brownsboro,54.25,124.74,72.57,154.22,351.53,Single-ply,SBD,M
Boys,55.79,5,Bryan Rodriguez,Greenville,53.71,145.15,65.77,129.27,340.19,Single-ply,SBD,M
Boys,55.79,6,Makai Reyes,Mabank,55.7,136.08,79.38,124.74,340.19,Single-ply,SBD,M
Boys,55.79,7,Karson Bynum,Linden-Kildare,55.25,120.2,68.04,129.27,317.51,Single-ply,SBD,M
Boys,55.79,8,Cody Maxie,Atlanta,54.98,124.74,61.23,127.01,312.98,Single-ply,SBD,M
Boys,55.79,9,Aaron Godwin,Mabank,54.07,124.74,68.04,104.33,297.1,Single-ply,SBD,M
Boys,59.87,1,Richard Lowrie,Kemp,59.69,204.12,108.86,192.78,505.76,Single-ply,SBD,M
Boys,59.87,2,Cristian Contreras,Greenville,58.88,199.58,111.13,192.78,503.49,Single-ply,SBD,M
Boys,59.87,3,Daniel Landaverde,Mount Pleasant,58.51,163.29,90.72,190.51,444.52,Single-ply,SBD,M
Boys,59.87,4,Chance Massaro,Brownsboro,59.87,165.56,88.45,151.95,405.97,Single-ply,SBD,M
Boys,59.87,5,Gavin Starks,Mabank,58.97,147.42,90.72,165.56,403.7,Single-ply,SBD,M
Boys,59.87,6,Patrick Dreeson,Linden-Kildare,57.33,147.42,65.77,154.22,367.41,Single-ply,SBD,M
Boys,59.87,7,Jonathon Martin,Kaufman,59.42,142.88,70.31,142.88,356.07,Single-ply,SBD,M
Boys,59.87,8,Tyrese Parker,Commerce,58.42,102.06,52.16,127.01,281.23,Single-ply,SBD,M
Boys,59.87,9,Zane Phillips,Mount Pleasant,59.87,102.06,61.23,115.67,278.96,Single-ply,SBD,M
Boys,59.87,10,David Nava,Mount Pleasant,59.06,102.06,61.23,108.86,272.16,Single-ply,SBD,M
Boys,59.87,11,Bryson Lutz,Paris North Lamar,59.87,83.91,40.82,113.4,238.14,Single-ply,SBD,M
Boys,67.13,1,Jesus Perez,Mount Pleasant,66.41,181.44,95.25,199.58,476.27,Single-ply,SBD,M
Boys,67.13,2,TeVarri Graves,Tyler,65.59,183.7,97.52,192.78,474,Single-ply,SBD,M
Boys,67.13,3,Joe'ell Morales,Sulphur Springs,61.14,181.44,99.79,181.44,462.66,Single-ply,SBD,M
Boys,67.13,4,Damiyon Dugan,Sulphur Springs,63.41,161.03,90.72,188.24,439.98,Single-ply,SBD,M
Boys,67.13,5,Andy Eddins,Sulphur Springs,66.13,158.76,95.25,181.44,435.45,Single-ply,SBD,M
Boys,67.13,6,Harley Sanders,Brownsboro,64.77,165.56,102.06,165.56,433.18,Single-ply,SBD,M
Boys,67.13,7,Jesse Carrillo,Sulphur Springs,65.14,154.22,106.59,172.37,433.18,Single-ply,SBD,M
Boys,67.13,8,Dezmond Jones,Kemp,66.95,174.63,102.06,151.95,428.64,Single-ply,SBD,M
Boys,67.13,9,Jesus Mendez,Emory Rains,67.13,163.29,83.91,181.44,428.64,Single-ply,SBD,M
Boys,67.13,10,Spencer Akins,Howe,63.68,167.83,97.52,156.49,421.84,Single-ply,SBD,M
Boys,67.13,11,Alejandro Vasquez,Greenville,61.23,170.1,79.38,161.03,410.5,Single-ply,SBD,M
Boys,67.13,12,Bryce Evans,Paris North Lamar,66.13,154.22,92.99,163.29,410.5,Single-ply,SBD,M
Boys,67.13,13,Kerrighan Smith,Commerce,63.87,149.69,95.25,149.69,394.63,Single-ply,SBD,M
Boys,67.13,14,Logan McCurley,Brownsboro,65.23,142.88,79.38,151.95,374.21,Single-ply,SBD,M
Boys,67.13,15,Dylan Castillo,Brownsboro,65.23,129.27,74.84,165.56,369.68,Single-ply,SBD,M
Boys,67.13,16,Haydan Keller,Sulphur Springs,64.23,136.08,81.65,147.42,365.14,Single-ply,SBD,M
Boys,67.13,17,Deuce Schuler,Linden-Kildare,66.59,136.08,72.57,145.15,353.8,Single-ply,SBD,M
Boys,67.13,18,J. Dunlap,Linden-Kildare,66.68,124.74,79.38,145.15,349.27,Single-ply,SBD,M
Boys,67.13,19,Erik Fowler,Linden-Kildare,62.51,129.27,68.04,142.88,340.19,Single-ply,SBD,M
Boys,67.13,20,Deondre Doss,Diana New Diana,66.95,145.15,70.31,117.93,333.39,Single-ply,SBD,M
Boys,67.13,21,Camden Fuller,Sulphur Springs,65.23,115.67,65.77,124.74,306.17,Single-ply,SBD,M
Boys,67.13,22,Nick Cochran,Fairfield,65.86,113.4,52.16,127.01,292.57,Single-ply,SBD,M
Boys,67.13,23,Hunter Camarillo,Linden-Kildare,64.23,95.25,58.97,136.08,290.3,Single-ply,SBD,M
Boys,67.13,24,Lakeceion Richardson,Atlanta,61.69,102.06,68.04,113.4,283.5,Single-ply,SBD,M
Boys,67.13,25,Alex Vaseleck,Mount Pleasant,60.6,102.06,45.36,115.67,263.08,Single-ply,SBD,M
Boys,74.84,1,Andrew Magedson,Greenville,72.76,249.48,124.74,249.48,623.69,Single-ply,SBD,M
Boys,74.84,2,Carson Bridges,Sulphur Springs,72.48,204.12,104.33,210.92,519.36,Single-ply,SBD,M
Boys,74.84,3,Jacob Nash,Atlanta,74.12,201.85,113.4,204.12,519.36,Single-ply,SBD,M
Boys,74.84,4,Christian Garcia,Emory Rains,69.4,195.04,97.52,192.78,485.34,Single-ply,SBD,M
Boys,74.84,5,George Greenway,Sulphur Springs,74.57,190.51,104.33,190.51,485.34,Single-ply,SBD,M
Boys,74.84,6,Kobe Martinez,Mineola,73.84,183.7,102.06,183.7,469.47,Single-ply,SBD,M
Boys,74.84,7,Luke Wellman,Brownsboro,71.12,190.51,102.06,174.63,467.2,Single-ply,SBD,M
Boys,74.84,8,Zane Anderson,Fairfield,73.57,188.24,99.79,165.56,453.59,Single-ply,SBD,M
Boys,74.84,9,Caden Davis,Sulphur Springs,74.12,149.69,106.59,181.44,437.72,Single-ply,SBD,M
Boys,74.84,10,Jay Gasper,Kaufman,68.04,161.03,81.65,188.24,430.91,Single-ply,SBD,M
Boys,74.84,11,Marcos Molina,Brownsboro,73.84,176.9,72.57,179.17,428.64,Single-ply,SBD,M
Boys,74.84,12,Noah Johnson,Sulphur Springs,73.57,151.95,102.06,170.1,424.11,Single-ply,SBD,M
Boys,74.84,13,Jonathan Ramirez,Mineola,70.03,170.1,92.99,151.95,415.04,Single-ply,SBD,M
Boys,74.84,14,Connor Straughan,Commerce,73.66,151.95,88.45,151.95,392.36,Single-ply,SBD,M
Boys,74.84,15,Lex Thompson,Fairfield,73.3,131.54,92.99,151.95,376.48,Single-ply,SBD,M
Boys,74.84,16,Taylor Vandergriff,Brownsboro,68.04,136.08,52.16,179.17,367.41,Single-ply,SBD,M
Boys,74.84,17,Ryan Carrillo,Sulphur Springs,69.94,151.95,86.18,127.01,365.14,Single-ply,SBD,M
Boys,74.84,18,Joe Moreno,Greenville,72.76,133.81,83.91,147.42,365.14,Single-ply,SBD,M
Boys,74.84,19,Clay Barnett,Howe,74.21,142.88,68.04,154.22,365.14,Single-ply,SBD,M
Boys,74.84,20,Xzayveian Basham,Commerce,69.58,127.01,77.11,151.95,356.07,Single-ply,SBD,M
Boys,74.84,DQ,Jordan Stiger,Atlanta,73.75,149.69,,,,Single-ply,SBD,M
Boys,82.1,1,Jaxon Hevron,Paris North Lamar,81.28,240.4,145.15,238.14,623.69,Single-ply,SBD,M
Boys,82.1,2,Vincent Morales,Sulphur Springs,81.56,192.78,136.08,226.8,555.65,Single-ply,SBD,M
Boys,82.1,3,Marcos Gallegos,Mabank,80.92,204.12,129.27,215.46,548.85,Single-ply,SBD,M
Boys,82.1,4,Tyler Garrett,Kemp,81.56,213.19,127.01,199.58,539.77,Single-ply,SBD,M
Boys,82.1,5,Bobby Possey,Brownsboro,75.75,199.58,117.93,213.19,530.7,Single-ply,SBD,M
Boys,82.1,6,Samual Martinez,Greenville,80.2,210.92,115.67,192.78,519.36,Single-ply,SBD,M
Boys,82.1,7,Jonathan Mendez,Kemp,79.74,195.04,115.67,181.44,492.15,Single-ply,SBD,M
Boys,82.1,8,David Thomas,Fairfield,82.01,183.7,124.74,167.83,476.27,Single-ply,SBD,M
Boys,82.1,9,Zane Freeman,Diana New Diana,77.66,188.24,104.33,179.17,471.74,Single-ply,SBD,M
Boys,82.1,10,Landry Tyson,Sulphur Springs,79.47,158.76,106.59,174.63,439.98,Single-ply,SBD,M
Boys,82.1,11,Christian Tristian,Brownsboro,77.11,172.37,88.45,174.63,435.45,Single-ply,SBD,M
Boys,82.1,12,Raul Hernandez,Howe,75.02,149.69,95.25,158.76,403.7,Single-ply,SBD,M
Boys,82.1,13,Jeremiah Jefferson,Atlanta,81.74,142.88,68.04,158.76,369.68,Single-ply,SBD,M
Boys,82.1,14,John Nicholson,Fairfield,75.57,124.74,63.5,149.69,337.93,Single-ply,SBD,M
Boys,82.1,15,Carson Moore,Fairfield,75.84,108.86,45.36,124.74,278.96,Single-ply,SBD,M
Boys,82.1,DQ,Devin Jacks,Emory Rains,78.93,192.78,,,,Single-ply,SBD,M
Boys,89.81,1,Alan Quezada,Kemp,88.99,260.82,170.1,226.8,657.71,Single-ply,SBD,M
Boys,89.81,2,Aron Jahr,Diana New Diana,87,247.21,142.88,244.94,635.03,Single-ply,SBD,M
Boys,89.81,3,Tucker Moman,Greenville,89.27,222.26,113.4,238.14,573.79,Single-ply,SBD,M
Boys,89.81,4,Isaiah Askew,Commerce,83.64,224.53,113.4,217.72,555.65,Single-ply,SBD,M
Boys,89.81,5,Victor Enriquez,Greenville,87.36,226.8,113.4,183.7,523.9,Single-ply,SBD,M
Boys,89.81,6,Keagan Richardson,Mabank,88.81,204.12,124.74,195.04,523.9,Single-ply,SBD,M
Boys,89.81,7,Harley Manders,Kemp,89.36,192.78,122.47,179.17,494.42,Single-ply,SBD,M
Boys,89.81,8,Kadarian Asbell,Tyler,89.63,183.7,102.06,185.97,471.74,Single-ply,SBD,M
Boys,89.81,9,Will Parker,Fairfield,82.92,174.63,102.06,192.78,469.47,Single-ply,SBD,M
Boys,89.81,10,Daniel Bueno,Greenville,83.73,181.44,92.99,181.44,455.86,Single-ply,SBD,M
Boys,89.81,11,Conner Samples,Atlanta,84.19,183.7,97.52,161.03,442.25,Single-ply,SBD,M
Boys,89.81,12,Christian Fraser,Diana New Diana,84.46,151.95,102.06,185.97,439.98,Single-ply,SBD,M
Boys,89.81,13,Nic Kunze,Linden-Kildare,89.81,154.22,83.91,181.44,419.57,Single-ply,SBD,M
Boys,89.81,14,Jackson Adkins,Howe,83.01,151.95,90.72,154.22,396.89,Single-ply,SBD,M
Boys,89.81,15,Omarhi Davis,Commerce,88,151.95,72.57,165.56,390.09,Single-ply,SBD,M
Boys,89.81,16,Mark Burrell,Mineola,89.36,151.95,90.72,133.81,376.48,Single-ply,SBD,M
Boys,89.81,17,Luke Jackson,Howe,87.27,113.4,58.97,117.93,290.3,Single-ply,SBD,M
Boys,99.79,1,Christian Hartsfield,Tyler,96.8,197.31,129.27,201.85,528.44,Single-ply,SBD,M
Boys,99.79,2,Kenneth Randall,Kaufman,93.17,188.24,104.33,224.53,517.1,Single-ply,SBD,M
Boys,99.79,3,Trey Adams,Atlanta,92.26,204.12,127.01,183.7,514.83,Single-ply,SBD,M
Boys,99.79,4,Edher Oviedo,Mount Pleasant,94.44,185.97,104.33,199.58,489.88,Single-ply,SBD,M
Boys,99.79,5,Victor Gomez,Tyler,95.53,188.24,111.13,170.1,469.47,Single-ply,SBD,M
Boys,99.79,6,Steven Jonaitis,Sulphur Springs,90.9,174.63,83.91,167.83,426.38,Single-ply,SBD,M
Boys,99.79,7,Jacob Hernandez,Sulphur Springs,97.16,183.7,83.91,158.76,426.38,Single-ply,SBD,M
Boys,99.79,8,Chris Clavel,Mount Pleasant,92.35,165.56,95.25,163.29,424.11,Single-ply,SBD,M
Boys,99.79,9,Garrett Little,Fairfield,93.89,158.76,79.38,151.95,390.09,Single-ply,SBD,M
Boys,99.79,10,Chandler Leo,Sulphur Springs,98.25,151.95,83.91,151.95,387.82,Single-ply,SBD,M
Boys,99.79,11,L. Liles,Linden-Kildare,99.79,145.15,90.72,147.42,383.29,Single-ply,SBD,M
Boys,99.79,12,Blake Mays,Mount Pleasant,96.8,147.42,81.65,147.42,376.48,Single-ply,SBD,M
Boys,99.79,13,Cameron Farmer,Brownsboro,91.26,120.2,65.77,117.93,303.91,Single-ply,SBD,M
Boys,99.79,DQ,Darrion Allen,Atlanta,95.89,215.46,,,,Single-ply,SBD,M
Boys,99.79,DQ,Carter Renfro,Paris North Lamar,95.35,165.56,,,,Single-ply,SBD,M
Boys,99.79,DQ,Tyrell Jones,Tyler,97.16,,,,,Single-ply,SBD,M
Boys,109.77,1,Ian Blanch,Sulphur Springs,108.5,272.16,151.95,249.48,673.58,Single-ply,SBD,M
Boys,109.77,2,D'Idrec Dugan,Sulphur Springs,104.6,242.67,138.35,272.16,653.17,Single-ply,SBD,M
Boys,109.77,3,Rico Simon,Greenville,107.32,272.16,140.61,238.14,650.91,Single-ply,SBD,M
Boys,109.77,4,Tony Cortez,Greenville,102.69,254.01,147.42,226.8,628.23,Single-ply,SBD,M
Boys,109.77,5,Jashon Pogue,Mount Pleasant,109.77,181.44,120.2,226.8,528.44,Single-ply,SBD,M
Boys,109.77,6,Montana Booker,Kaufman,108.68,210.92,111.13,201.85,523.9,Single-ply,SBD,M
Boys,109.77,7,Nathan Duffee,Howe,101.88,201.85,111.13,192.78,505.76,Single-ply,SBD,M
Boys,109.77,8,Tyrell King,Atlanta,101.42,185.97,111.13,188.24,485.34,Single-ply,SBD,M
Boys,109.77,9,Justin Hicks,Kaufman,109.77,188.24,92.99,201.85,483.08,Single-ply,SBD,M
Boys,109.77,10,Justin Cooper,Fairfield,107.32,208.65,113.4,149.69,471.74,Single-ply,SBD,M
Boys,109.77,11,Anthony Peak,Commerce,107.86,183.7,111.13,156.49,451.32,Single-ply,SBD,M
Boys,109.77,12,C. Smith,Mabank,108.68,149.69,102.06,163.29,415.04,Single-ply,SBD,M
Boys,109.77,13,Z. Wilson,Linden-Kildare,107.5,145.15,104.33,149.69,399.16,Single-ply,SBD,M
Boys,109.77,14,Chris Cole,Brownsboro,108.59,165.56,81.65,147.42,394.63,Single-ply,SBD,M
Boys,109.77,15,Everette Stapleton,Commerce,100.79,113.4,77.11,124.74,315.25,Single-ply,SBD,M
Boys,109.77,DQ,Chris Garrison,Howe,101.88,204.12,,197.31,,Single-ply,SBD,M
Boys,109.77,DQ,Kimbrick McCaney,Tyler,108.95,163.29,,,,Single-ply,SBD,M
Boys,124.74,1,Kolt Stephens,Mabank,122.83,254.01,151.95,240.4,646.37,Single-ply,SBD,M
Boys,124.74,2,Joey Haley,Paris North Lamar,122.38,240.4,124.74,249.48,614.62,Single-ply,SBD,M
Boys,124.74,3,Matt Brunson,Diana New Diana,114.4,240.4,131.54,217.72,589.67,Single-ply,SBD,M
Boys,124.74,4,Ignacio Guerrero,Sulphur Springs,110.31,204.12,120.2,210.92,535.24,Single-ply,SBD,M
Boys,124.74,5,Alex Medina,Sulphur Springs,111.31,226.8,102.06,192.78,521.63,Single-ply,SBD,M
Boys,124.74,6,Gage Grahm,Mabank,117.93,183.7,142.88,183.7,510.29,Single-ply,SBD,M
Boys,124.74,7,Spencer Ayers,Brownsboro,123.1,190.51,115.67,185.97,492.15,Single-ply,SBD,M
Boys,124.74,8,Francisco Martinez,Atlanta,112.49,181.44,108.86,188.24,478.54,Single-ply,SBD,M
Boys,124.74,9,Wyatt Green,Brownsboro,118.66,183.7,97.52,183.7,464.93,Single-ply,SBD,M
Boys,124.74,10,Daymian Diaz,Tyler,112.49,133.81,79.38,149.69,362.87,Single-ply,SBD,M
Boys,124.74,11,Luke Hohenberger,Paris North Lamar,113.22,124.74,68.04,129.27,322.05,Single-ply,SBD,M
Boys,124.74+,1,Logan DeGarso,Greenville,145.42,285.76,149.69,226.8,662.24,Single-ply,SBD,M
Boys,124.74+,2,Cameron Wise,Mineola,133.36,265.35,129.27,229.06,623.69,Single-ply,SBD,M
Boys,124.74+,3,TreJon Blake,Tyler,126.64,251.74,129.27,238.14,619.15,Single-ply,SBD,M
Boys,124.74+,4,Jesus Olivo,Sulphur Springs,129.27,249.48,136.08,192.78,578.33,Single-ply,SBD,M
Boys,124.74+,5,Elian Perea,Kaufman,131.63,226.8,138.35,210.92,576.06,Single-ply,SBD,M
Boys,124.74+,6,Dustin Williams,Atlanta,140.61,213.19,161.03,195.04,569.26,Single-ply,SBD,M
Boys,124.74+,7,Ja'Bralen Yarber,Tyler,125.46,192.78,115.67,204.12,512.56,Single-ply,SBD,M
Boys,124.74+,8,Chandler Noble,Fairfield,129,226.8,92.99,183.7,503.49,Single-ply,SBD,M
Boys,124.74+,9,Ethan Rodgers,Sulphur Springs,130.63,215.46,117.93,142.88,476.27,Single-ply,SBD,M
Boys,124.74+,10,Riley Miner,Paris North Lamar,133.45,183.7,102.06,188.24,474,Single-ply,SBD,M
Boys,124.74+,11,Taylor Kepley,Commerce,126.64,179.17,102.06,170.1,451.32,Single-ply,SBD,M
Boys,124.74+,12,Ali Alcasey,Kemp,126.73,183.7,124.74,142.88,451.32,Single-ply,SBD,M
Boys,124.74+,13,Alfredo Olaveto,Sulphur Springs,139.71,149.69,81.65,179.17,410.5,Single-ply,SBD,M
Boys,124.74+,14,Tyler Welborn,Mount Pleasant,142.88,124.74,81.65,167.83,374.21,Single-ply,SBD,M
Boys,124.74+,15,Bodee Robinson,Paris North Lamar,133.9,102.06,92.99,151.95,347,Single-ply,SBD,M
Boys,124.74+,16,Garrick Felsberg,Paris North Lamar,126.37,97.52,81.65,124.74,303.91,Single-ply,SBD,M
