Name,WeightClassKg,Division,Sex,Best3SquatKg,Best3BenchKg,Best3DeadliftKg,TotalKg,Event,Equipment,Place
Jim Reinardy,67.5,Open,M,251.74,104.33,238.14,594.21,SBD,Single-ply,1
John Dunn,67.5,Open,M,190.51,106.59,219.99,517.1,SBD,Single-ply,2
Michael Scott,82.5,Open,M,240.4,154.22,242.67,637.3,SBD,Single-ply,1
Mitch Edelstein,100,Open,M,265.35,167.83,283.5,716.68,SBD,Single-ply,1
Karl Gillingham,100,Open,M,267.62,172.37,274.42,714.41,SBD,Single-ply,2
Brad Gillingham,125,Open,M,290.3,210.92,312.98,814.2,SBD,Single-ply,1
Jeffrey Green,125+,Open,M,328.85,199.58,285.76,814.2,SBD,Single-ply,1
