Place,Name,State,WeightClassKg,BodyweightKg,Age,Best3SquatKg,Best3BenchKg,Best3DeadliftKg,TotalKg,Sex,Division,Equipment,Event,Deadlift4Kg
1,E'Le'A Ilae,HI,60,59.9,19,95,50,130,275,F,Juniors 18-19,Raw,SBD,
1,Nicole Daoang,HI,60,59.7,23,137.5,92.5,170,400,F,Juniors 20-23,Raw,SBD,
1,Rachel Tom,HI,67.5,67.5,22,112.5,52.5,125,290,F,Juniors 20-23,Raw,SBD,
1,Noelle Tsutsui,HI,82.5,77.2,23,125,62.5,127.5,315,F,Juniors 20-23,Raw,SBD,
1,Lily Rogers,HI,90+,107.8,18,110,65,120,295,F,Juniors 18-19,Raw,SBD,
1,Lindsey Okumoto,HI,52,51.2,31,120,65,150,335,F,Open,Raw,SBD,
2,Keri Parado,HI,52,52,30,107.5,55,107.5,270,F,Open,Raw,SBD,
3,Abigail Aceves,HI,52,51.5,27,92.5,52.5,112.5,257.5,F,Open,Raw,SBD,
4,Aisha Young,HI,52,52,26,82.5,47.5,102.5,232.5,F,Open,Raw,SBD,
1,Elena Dias,HI,56,55.8,36,80,62.5,122.5,265,F,Open,Raw,SBD,
1,Nicole Daoang,HI,60,59.7,23,137.5,92.5,170,400,F,Open,Raw,SBD,
1,Amber Carranco,HI,67.5,65.7,25,125,80,142.5,347.5,F,Open,Raw,SBD,
2,Paola Rodelas,HI,67.5,67.5,31,117.5,70,120,307.5,F,Open,Raw,SBD,
3,Rachel Tom,HI,67.5,67.5,22,112.5,52.5,125,290,F,Open,Raw,SBD,
4,Jacqueline Rodrigo,HI,67.5,66.5,33,100,50,122.5,272.5,F,Open,Raw,SBD,
DQ,Maribeth Seveses,HI,67.5,67.5,27,95,,117.5,,F,Open,Raw,SBD,
1,Asinate Vaivela,HI,75,69.4,25,145,75,167.5,387.5,F,Open,Raw,SBD,
2,Cyndee Pearson,HI,75,71.2,31,115,55,137.5,307.5,F,Open,Raw,SBD,
1,U'ilani Miles,HI,82.5,81.2,31,165,80,170,415,F,Open,Raw,SBD,
2,Noelle Tsutsui,HI,82.5,77.2,23,125,62.5,127.5,315,F,Open,Raw,SBD,
1,Elena Dias,HI,56,55.8,36,80,62.5,122.5,265,F,Submasters 35-39,Raw,SBD,
1,Vanessa Freitas-Gueco,HI,90,85,38,102.5,57.5,140,300,F,Submasters 35-39,Raw,SBD,
1,Joshua Ruiz,HI,56,55.8,21,120,95,142.5,357.5,M,Juniors 20-23,Raw,SBD,
1,Jallel Fabro,HI,60,59,22,130,117.5,175,422.5,M,Juniors 20-23,Raw,SBD,
1,Marvince Sanchez,HI,67.5,67.5,20,160,100,222.5,482.5,M,Juniors 20-23,Raw,SBD,
1,James Cabajar,HI,75,73.9,21,222.5,127.5,265,615,M,Juniors 20-23,Raw,SBD,272.5
2,Christian Valdez,HI,75,72.9,21,182.5,115,250,547.5,M,Juniors 20-23,Raw,SBD,
3,Chad Gomes,HI,75,74.9,21,190,145,210,545,M,Juniors 20-23,Raw,SBD,
3,Marvin Taeza,HI,75,74.9,23,185,110,250,545,M,Juniors 20-23,Raw,SBD,
4,Lewis Ceria,HI,75,74.8,22,162.5,115,235,512.5,M,Juniors 20-23,Raw,SBD,
5,Vincent Keomoungkhoune,HI,75,74.9,22,172.5,120,205,497.5,M,Juniors 20-23,Raw,SBD,
1,Nielsen Mariano,HI,82.5,82,21,217.5,127.5,240,585,M,Juniors 20-23,Raw,SBD,
1,Ryan Ancheta,HI,90,88.3,19,177.5,97.5,187.5,462.5,M,Juniors 18-19,Raw,SBD,
DQ,Dusty Flores,HI,90,85,22,195,,225,,M,Juniors 20-23,Raw,SBD,
1,Joevic Magarin,HI,100,99.3,22,210,125,217.5,552.5,M,Juniors 20-23,Raw,SBD,
1,Tyler Ordonez,HI,110,109.6,21,225,142.5,215,582.5,M,Juniors 20-23,Raw,SBD,
1,Chris Alapai,HI,125,113,18,150,92.5,170,412.5,M,Juniors 18-19,Raw,SBD,
1,Reyn Root,HI,140+,153,21,255,192.5,255,702.5,M,Juniors 20-23,Raw,SBD,
1,Jallel Fabro,HI,60,59,22,130,117.5,175,422.5,M,Open,Raw,SBD,
1,Mitchell Ceballos,HI,67.5,63.8,24,177.5,127.5,215,520,M,Open,Raw,SBD,
2,Marvince Sanchez,HI,67.5,67.5,20,160,100,222.5,482.5,M,Open,Raw,SBD,
3,Marc Quinsaat,HI,67.5,66.9,24,130,100,142.5,372.5,M,Open,Raw,SBD,
1,James Cabajar,HI,75,73.9,21,222.5,127.5,265,615,M,Open,Raw,SBD,272.5
2,Scott James Failano,HI,75,74.2,29,207.5,142.5,265,615,M,Open,Raw,SBD,
3,John Martin,HI,75,73.8,26,167.5,142.5,215,525,M,Open,Raw,SBD,
4,Tim Amor,HI,75,71,32,142.5,95,182.5,420,M,Open,Raw,SBD,
5,William Lau,HI,75,70.4,38,137.5,92.5,182.5,412.5,M,Open,Raw,SBD,
1,Nielsen Mariano,HI,82.5,82,21,217.5,127.5,240,585,M,Open,Raw,SBD,
2,Mike Kimura,HI,82.5,80.8,50,192.5,175,205,572.5,M,Open,Raw,SBD,
1,Kamalei Benjamin-Maielua,HI,90,90,25,227.5,175,262.5,665,M,Open,Raw,SBD,
2,Mike Wong,HI,90,88.6,24,192.5,147.5,205,545,M,Open,Raw,SBD,
DQ,Dusty Flores,HI,90,85,22,195,,225,,M,Open,Raw,SBD,
1,Keanu Chung-Leong,HI,100,99.9,26,265,197.5,292.5,755,M,Open,Raw,SBD,
2,Colson Fernandez,HI,100,99.1,27,237.5,170,287.5,695,M,Open,Raw,SBD,
3,Joevic Magarin,HI,100,99.3,22,210,125,217.5,552.5,M,Open,Raw,SBD,
4,Chester Alapai,HI,100,98.4,24,157.5,100,207.5,465,M,Open,Raw,SBD,
5,Phillip Lau,HI,100,98.3,32,162.5,92.5,172.5,427.5,M,Open,Raw,SBD,
1,Keith Flores Jr,HI,110,107.2,27,285,175,292.5,752.5,M,Open,Raw,SBD,
2,Jesus O. Madrigal,HI,110,104.3,26,210,132.5,240,582.5,M,Open,Raw,SBD,
1,William Lau,HI,75,70.4,38,137.5,92.5,182.5,412.5,M,Submasters 35-39,Raw,SBD,
1,Shane Kahikina,HI,100,98.7,36,165,115,197.5,477.5,M,Submasters 35-39,Raw,SBD,
1,Kyle Siangco,HI,125,123.8,36,227.5,175,287.5,690,M,Submasters 35-39,Raw,SBD,
1,Mike Kimura,HI,82.5,80.8,50,192.5,175,205,572.5,M,Masters 50-54,Raw,SBD,
1,Robin Sajor,HI,90,89.7,49,185,152.5,227.5,565,M,Masters 45-49,Raw,SBD,
1,David Jacob Maielua,HI,100,99.5,46,220,152.5,227.5,600,M,Masters 45-49,Raw,SBD,
