Place,Sex,Name,CyrillicName,Event,Equipment,WeightClassKg,Tested,Division,BirthDate,Age,BodyweightKg,Squat1Kg,Squat2Kg,Squat3Kg,Best3SquatKg,Bench1Kg,Bench2Kg,Bench3Kg,Bench4Kg,Best3BenchKg,Deadlift1Kg,Deadlift2Kg,Deadlift3Kg,Best3DeadliftKg,TotalKg
1,M,Viktor Kopaev,Виктор Копаев,SBD,Raw,75,No,Open,1990-02-02,25,73.1,170,180,190,190,135,140,-150,,140,180,200,207.5,207.5,537.5
2,M,Anton Darda,Антон Дарда,SBD,Raw,75,No,Open,1988-03-15,27,74.2,175,185,-195,185,130,-140,-140,,130,170,180,195,195,510
1,M,Maksim Grekov,Максим Греков,SBD,Raw,82.5,No,Open,1985-09-09,29,81.8,230,-235,235,235,170,175,-180,,175,270,-275,-275,270,680
2,M,Mikhail Dyakov,Михаил Дьяков,SBD,Raw,82.5,No,Open,1990-10-11,24,80.3,-200,205,-212.5,205,145,-152.5,-152.5,,145,245,255,260,260,610
1,M,Roman Antonyak,Роман Антоняк,SBD,Raw,90,No,Juniors 20-23,1993-03-08,22,86.5,240,-262.5,262.5,262.5,160,175,180,,180,270,292.5,,292.5,735
1,M,Aslambek Abaev,Асламбек Абаев,SBD,Raw,100,No,Open,1959-08-04,56,95.9,270,280,-290,280,200,-207.5,,,200,265,275,-280,275,755
2,M,Sergey Mishchenko,Сергей Мищенко,SBD,Raw,100,No,Open,1988-07-21,27,98.4,-180,180,190,190,130,140,-150,,140,190,200,210,210,540
1,M,Aslambek Abaev,Асламбек Абаев,SBD,Raw,100,No,Masters 55-59,1959-06-28,56,95.9,270,280,-290,280,200,,,,200,265,275,-280,275,755
DQ,M,Renat Akhmetov,Ренат Ахметов,SBD,Raw,110,No,Open,1961-05-20,54,106.4,230,240,250,250,165,175,-180,,175,,,,,
DQ,M,Renat Akhmetov,Ренат Ахметов,SBD,Raw,110,No,Masters 50-54,1961-05-20,54,106.4,230,240,250,250,165,175,-180,,175,,,,,
1,M,Sergey Ustinov,Сергей Устинов,SBD,Raw,125,No,Open,1988-04-23,27,122.9,280,-300,-300,280,180,-190,,,180,250,275,300,300,760
1,M,Sergey Luchenkov,Сергей Лученков,SBD,Raw,140,No,Open,1977-05-24,38,125.9,280,-290,,280,217.5,-225,-232.5,,217.5,280,300,320,320,817.5
1,M,Aleksandr Rek,Александр Рек,SBD,Wraps,67.5,No,Open,1987-07-13,28,65.9,195,210,217.5,217.5,107.5,112.5,117.5,,117.5,185,195,,195,530
DQ,M,Nikita Bobrov,Никита Бобров,SBD,Wraps,82.5,No,Juniors 20-23,1994-07-29,21,78.7,-215,-215,-220,,,,,,,,,,,
1,M,Aleksey Emelyanov,Алексей Емельянов,SBD,Wraps,82.5,No,Open,1983-02-25,32,78.5,230,245,-255,245,145,150,155,,155,230,240,245,245,645
DQ,M,Dmitriy Yudkin,Дмитрий Юдкин,SBD,Wraps,90,No,Juniors 20-23,1995-02-28,20,85.1,-160,-170,-170,,,,,,,,,,,
1,M,Artem Gerasimenko,Артем Герасименко,SBD,Wraps,100,No,Teen 16-17,1997-08-26,17,97.8,240,260,265,265,130,140,-145,,140,220,235,240,240,645
1,M,Yury Belkin,Юрий Белкин,SBD,Wraps,100,No,Open,1990-12-05,24,99.6,-345,345,-360,345,210,-220,-220,,210,345,-360,,345,900
1,M,Nikita Lunin,Никита Лунин,SBD,Wraps,125,No,Juniors 20-23,1993-11-17,21,115.3,-190,190,207.5,207.5,155,165,-172.5,,165,220,230,240,240,612.5
1,M,Aleksandr Chervyakov,Александр Червяков,SBD,Wraps,140,No,Open,1988-01-08,27,126,255,265,-275,265,210,217.5,220,,220,-310,310,-315,310,795
1,F,Viktoriya Ablaeva,Виктория Аблаева,BD,Raw,60,No,Open,1983-05-08,32,60,,,,,-60,-65,65,,65,-150,150,160,160,225
1,M,Nikita Bobrov,Никита Бобров,BD,Raw,82.5,No,Juniors 20-23,1994-07-29,21,78.7,,,,,135,145,-147.5,,145,220,230,-240,230,375
1,M,Dmitriy Yudkin,Дмитрий Юдкин,BD,Raw,90,No,Juniors 20-23,1995-02-28,20,85.1,,,,,110,-117.5,117.5,,117.5,-150,155,165,165,282.5
1,M,Aleksandr Ivanov,Александр Иванов,BD,Raw,90,No,Open,1988-06-02,27,85.8,,,,,132.5,140,-145,,140,215,230,235,235,375
1,M,Sergey Mishchenko,Сергей Мищенко,BD,Raw,100,No,Open,1988-07-21,27,98.4,,,,,130,140,-150,,140,190,200,210,210,350
1,M,Vladimir Marchenko,Владимир Марченко,BD,Raw,125,No,Open,1978-04-22,37,112.2,,,,,170,-180,180,,180,300,-310,-310,300,480
1,F,Aleksandra Gavrilova,Александра Гаврилова,B,Raw,48,No,Open,1979-01-15,36,47.1,,,,,40,42.5,-45,,42.5,,,,,42.5
1,F,Ekaterina Potekhina,Екатерина Потехина,B,Raw,56,No,Open,1988-02-17,27,52.3,,,,,62.5,-65,-67.5,,62.5,,,,,62.5
1,F,Nadezhda Vlasova,Надежда Власова,B,Raw,60,No,Open,1982-01-24,33,60,,,,,100,-105,-105,,100,,,,,100
1,F,Mariya Serkova,Мария Серкова,B,Raw,75,No,Open,1982-03-26,33,72.4,,,,,90,-95,-95,,90,,,,,90
1,M,Sergey Karaziya,Сергей Каразия,B,Raw,56,No,Open,1987-11-30,27,55.7,,,,,145,-150,-152.5,,145,,,,,145
1,M,Roman Belousov,Роман Белоусов,B,Raw,60,No,Juniors 20-23,1991-10-19,23,57,,,,,135,140,-142.5,,140,,,,,140
1,M,Roman Eremashvili,Роман Еремашвили,B,Raw,75,No,Open,1981-05-27,34,68.8,,,,,170,180,190,,190,,,,,190
1,M,Aleksey Zhavoronkov,Алексей Жаворонков,B,Raw,82.5,No,Teen 18-19,1996-08-23,18,81.8,,,,,160,-167.5,-167.5,,160,,,,,160
1,M,Ilya Klimov,Илья Климов,B,Raw,82.5,No,Open,1991-02-10,24,81.9,,,,,-150,150,-165,,150,,,,,150
2,M,Sergey Mozhaev,Сергей Можаев,B,Raw,82.5,No,Open,1988-04-16,27,80.1,,,,,135,-137.5,-137.5,,135,,,,,135
1,M,Ruben Kazaryan,Рубен Казарян,B,Raw,90,No,Teen 18-19,1995-11-21,19,84,,,,,-145,150,155,,155,,,,,155
2,M,Andrey Chemko,Андрей Чемко,B,Raw,90,No,Teen 18-19,1996-09-15,18,90,,,,,-110,110,120,,120,,,,,120
1,M,Pavel Leonov,Павел Леонов,B,Raw,90,No,Open,1983-11-08,31,89.3,,,,,200,-207.5,-207.5,,200,,,,,200
2,M,Nikolay Tsikulaev,Николай Цикулаев,B,Raw,90,No,Open,1989-12-12,25,87.3,,,,,170,-175,175,,175,,,,,175
3,M,Shamil Askerov,Шамиль Аскеров,B,Raw,90,No,Open,1989-04-01,26,89.1,,,,,140,145,-152.5,,145,,,,,145
1,M,Sergey Popov,Сергей Попов,B,Raw,90,No,Masters 40-44,1974-05-31,41,89.3,,,,,185,190,-195,,190,,,,,190
1,M,Vladislav Shust,Владислав Шуст,B,Raw,100,No,Teen 16-17,1998-01-11,17,95.6,,,,,135,140,145,,145,,,,,145
1,M,Yuriy Belkov,Юрий Бельков,B,Raw,100,No,Open,1987-01-05,28,99.1,,,,,222.5,-230,-230,,222.5,,,,,222.5
2,M,Yury Belkin,Юрий Белкин,B,Raw,100,No,Open,1990-12-05,24,99.6,,,,,210,,,,210,,,,,210
3,M,Aleksey Melnikov,Алексей Мельников,B,Raw,100,No,Open,1987-10-22,27,93.9,,,,,180,-187.5,-187.5,,180,,,,,180
4,M,Sergey Mishchenko,Сергей Мищенко,B,Raw,100,No,Open,1988-07-21,27,98.4,,,,,130,140,-150,,140,,,,,140
1,M,Kirill Potekhin,Кирилл Потехин,B,Raw,100,No,Masters 40-44,1971-08-13,43,98.3,,,,,180,190,-195,,190,,,,,190
1,M,Valeriy Chernov,Валерій Чернов,B,Raw,100,No,Masters 45-49,1969-12-06,45,99.1,,,,,-160,162.5,-170,,162.5,,,,,162.5
1,M,Dmitriy Frank,Дмитрий Франк,B,Raw,110,No,Juniors 20-23,1994-08-23,20,106.2,,,,,190,-200,-200,,190,,,,,190
2,M,Sergey Morozov,Сергей Морозов,B,Raw,110,No,Juniors 20-23,1992-09-11,22,106.4,,,,,140,160,170,,170,,,,,170
1,M,Yuriy Gavryushin,Юрий Гаврюшин,B,Raw,110,No,Open,1983-10-19,31,109,,,,,220,-230,-230,,220,,,,,220
2,M,Evgeniy Spirkin,Евгений Спиркин,B,Raw,110,No,Open,1987-11-14,27,107.6,,,,,217.5,-222.5,-222.5,,217.5,,,,,217.5
3,M,Evgeniy Zorin,Евгений Зорин,B,Raw,110,No,Open,1979-10-28,35,106,,,,,-205,205,,,205,,,,,205
4,M,Ruslan Breus,Руслан Бреус,B,Raw,110,No,Open,1983-12-14,31,105.3,,,,,195,-200,-200,,195,,,,,195
5,M,Akhmed Musaev,Ахмед Мусаев,B,Raw,110,No,Open,1980-10-10,34,100.5,,,,,160,170,-180,,170,,,,,170
6,M,Sergey Yakovlev,Сергей Яковлев,B,Raw,110,No,Open,1983-09-07,31,109.1,,,,,165,170,-180,,170,,,,,170
7,M,Aleksey Goncharov,Алексей Гончаров,B,Raw,110,No,Open,1991-05-31,24,108,,,,,-167.5,-167.5,167.5,,167.5,,,,,167.5
1,M,Denis Chernov #2,Денис Чернов,B,Raw,125,No,Juniors 20-23,1992-02-01,23,120.6,,,,,165,175,-180,,175,,,,,175
1,F,Viktoriya Ablaeva,Виктория Аблаева,D,Raw,60,No,Open,1983-05-08,32,60,,,,,,,,,,-150,150,160,160,160
1,M,Andrey Yankovskiy,Андрей Янковский,D,Raw,56,No,Teen 13-15,2001-03-20,14,55.2,,,,,,,,,,110,120,-130,120,120
1,M,Nikita Petrov,Никита Петров,D,Raw,67.5,No,Open,1988-11-17,26,67.2,,,,,,,,,,-180,180,-190,180,180
1,M,Aleksandr Ivanov,Александр Иванов,D,Raw,90,No,Open,1988-06-02,27,85.8,,,,,,,,,,215,230,-235,230,230
1,M,Yury Belkin,Юрий Белкин,D,Raw,100,No,Open,1990-12-05,24,99.6,,,,,,,,,,345,-360,,345,345
2,M,Sergey Mishchenko,Сергей Мищенко,D,Raw,100,No,Open,1988-07-21,27,98.4,,,,,,,,,,190,200,210,210,210
1,M,Aleksey Baryshev,Алексей Барышев,D,Raw,110,No,Open,1989-04-07,26,106.9,,,,,,,,,,350,-357.5,,350,350
2,M,Pavel Papenkov,Павел Папенков,D,Raw,110,No,Open,1980-02-29,35,106.4,,,,,,,,,,265,280,-292.5,280,280
DQ,M,Renat Akhmetov,Ренат Ахметов,D,Raw,110,No,Open,1961-05-20,54,106.4,,,,,,,,,,,,,,
DQ,M,Renat Akhmetov,Ренат Ахметов,D,Raw,110,No,Masters 50-54,1961-05-20,54,106.4,,,,,,,,,,,,,,
1,M,Oleg Mishkin,Олег Мишкин,D,Raw,125,No,Teen 16-17,1998-01-30,17,122.3,,,,,,,,,,170,180,-190,180,180
1,M,Vladimir Marchenko,Владимир Марченко,D,Raw,125,No,Open,1978-04-22,37,112.2,,,,,,,,,,300,-310,-310,300,300
1,M,Oleg Livshits,Олег Лившиц,D,Raw,140,No,Masters 40-44,1973-10-03,41,136.6,,,,,,,,,,350,370,-380,370,370
1,M,Maksim Streltsov,Максим Стрельцов,D,Raw,140+,No,Masters 40-44,1975-05-25,40,142.6,,,,,,,,,,310,330,-350,330,330
1,F,Ekaterina Tsvetkova,Екатерина Цветкова,SBD,Raw,48,Yes,Open,1990-05-20,25,47.7,70,77.5,-85,77.5,50,55,57.5,,57.5,90,100,-105,100,235
1,F,Bella Salmaeva,Бэлла Салмаева,SBD,Raw,52,Yes,Open,1986-06-25,29,51.5,77.5,-85,85,85,52.5,-57.5,60,,60,77.5,85,90,90,235
1,F,Olga Tyurina,Ольга Тюрина,SBD,Raw,60,Yes,Open,1977-12-09,37,59.9,100,-110,-110,100,-65,67.5,-70,,67.5,105,-115,,105,272.5
1,M,Vladislav Suleymanov,Владислав Сулейманов,SBD,Raw,75,Yes,Juniors 20-23,1995-05-31,20,74.3,155,-165,165,165,110,120,-125,,120,225,,,225,510
1,M,Maksim Koval,Максим Коваль,SBD,Raw,82.5,Yes,Juniors 20-23,1991-12-23,23,81.3,220,235,245,245,130,140,-145,,140,245,267.5,-275,267.5,652.5
1,M,Sergey Burdakov,Сергей Бурдаков,SBD,Raw,82.5,Yes,Open,1979-07-02,36,79.1,125,135,-145,135,90,95,-97.5,,95,140,155,165,165,395
1,M,Anton Bessonov,Антон Бессонов,SBD,Raw,90,Yes,Open,1988-04-15,27,89.5,200,207.5,212.5,212.5,155,162.5,-167.5,,162.5,210,222.5,,222.5,597.5
2,M,Aleksey Sheykin,Алексей Шейкин,SBD,Raw,90,Yes,Open,1988-03-24,27,88.5,-190,190,207.5,207.5,152.5,160,-165,,160,150,170,185,185,552.5
3,M,Samvel Danielyan,Самвел Даниелян,SBD,Raw,90,Yes,Open,1982-07-26,33,87.8,-165,-170,180,180,130,135,140,,140,210,215,-217.5,215,535
1,M,Sergey Golovkov,Сергей Головков,SBD,Raw,125,Yes,Open,1980-11-22,34,121,220,230,240,240,170,180,-185,,180,230,250,270,270,690
1,F,Anna Tarasova,Анна Тарасова,SBD,Raw,52,Yes,Teen 13-15,2000-03-08,15,50.3,72.5,77.5,82.5,82.5,45,-47.5,-47.5,,45,80,87.5,90,90,217.5
1,F,Alisa Bystrova,Алиса Быстрова,SBD,Raw,67.5,Yes,Open,1988-12-27,26,66.6,112.5,120,-125,120,55,-57.5,-60,,55,125,132.5,-140,132.5,307.5
DQ,M,Marat Ketenchiev,Марат Кетенчиев,SBD,Raw,67.5,Yes,Open,1986-07-19,29,66.2,-165,-165,-165,,,,,,,,,,,
DQ,M,Aleksey Serpichev,Алексей Серпичев,SBD,Raw,100,Yes,Juniors 20-23,1993-03-21,22,95,-220,-220,-220,,,,,,,,,,,
1,F,Darya Ermolaeva,Дарья Ермолаева,BD,Raw,60,Yes,Juniors 20-23,1993-04-01,22,58.5,,,,,45,47.5,-50,,47.5,-110,120,132.5,132.5,180
1,F,Olga Tyurina,Ольга Тюрина,BD,Raw,60,Yes,Open,1977-12-09,37,59.9,,,,,-65,67.5,-70,,67.5,105,-115,,105,172.5
1,M,Ruslan Kulebyakin,Руслан Кулебякин,BD,Raw,110,Yes,Open,1984-07-26,31,102.8,,,,,160,-170,-170,,160,240,250,,250,410
1,F,Bella Salmaeva,Бэлла Салмаева,B,Raw,52,Yes,Open,1986-06-25,29,51.5,,,,,52.5,-57.5,60,,60,,,,,60
2,F,Vladislava Mikhaylovskaya,Владислава Михайловская,B,Raw,52,Yes,Open,1982-09-16,32,51.2,,,,,45,-50,-50,,45,,,,,45
1,F,Svetlana Cherkasova,Светлана Черкасова,B,Raw,56,Yes,Open,1989-03-30,26,55.3,,,,,-57.5,57.5,-62.5,,57.5,,,,,57.5
1,F,Svetlana Stepanova,Светлана Степанова,B,Raw,60,Yes,Open,1983-11-17,31,58.6,,,,,87.5,90,92.5,,92.5,,,,,92.5
2,F,Olga Tyurina,Ольга Тюрина,B,Raw,60,Yes,Open,1977-12-09,37,59.9,,,,,-65,67.5,-70,,67.5,,,,,67.5
3,F,Natalya Reznichenko,Наталья Резниченко,B,Raw,60,Yes,Open,1984-04-12,31,60,,,,,55,60,-65,,60,,,,,60
DD,F,Irina Kharchuk,Ирина Харчук,B,Raw,60,Yes,Open,1983-02-18,32,59.8,,,,,47.5,-52.5,52.5,,52.5,,,,,
1,F,Yuliya Kamorina,Юлия Каморина,B,Raw,67.5,Yes,Open,1987-03-02,28,63.4,,,,,-67.5,67.5,-75,,67.5,,,,,67.5
1,F,Evgeniya Zharova,Евгения Жарова,B,Raw,75,Yes,Open,1990-04-30,25,74.7,,,,,65,-75,-75,,65,,,,,65
1,F,Veronika Ukolova,Вероника Уколова,B,Raw,100+,Yes,Teen 18-19,1997-06-17,18,112.4,,,,,75,80,-82.5,,80,,,,,80
1,M,Aleksey Dulin,Алексей Дулин,B,Raw,52,Yes,Open,1986-09-03,28,51,,,,,75,-82.5,-82.5,,75,,,,,75
1,M,Nikolay Obukhov,Николай Обухов,B,Raw,67.5,Yes,Masters 60-64,1953-04-02,62,67.3,,,,,95,-97.5,-97.5,,95,,,,,95
DQ,M,Leonid Khvan,Леонид Хван,B,Raw,75,Yes,Juniors 20-23,1992-07-30,23,73.2,,,,,-105,-105,-105,,,,,,,
1,M,Denis Sokov,Денис Соков,B,Raw,75,Yes,Open,1985-12-06,29,74.1,,,,,150,155,160,163,160,,,,,160
2,M,Artur Minasyan,Артур Минасян,B,Raw,75,Yes,Open,1988-02-09,27,74.9,,,,,130,140,-145,,140,,,,,140
3,M,Anton Chistov,Антон Чистов,B,Raw,75,Yes,Open,1990-01-27,25,73.4,,,,,132.5,135,-137.5,,135,,,,,135
4,M,Zaur Azhdarov,Заур Аждаров,B,Raw,75,Yes,Open,1978-09-02,36,73.5,,,,,120,125,130,,130,,,,,130
5,M,Dmitriy Grechishnikov,Дмитрий Гречишников,B,Raw,75,Yes,Open,1987-11-09,27,71.7,,,,,82.5,-87.5,87.5,,87.5,,,,,87.5
1,M,Ilya Pankratov,Илья Панкратов,B,Raw,82.5,Yes,Open,1986-12-09,28,81.3,,,,,180,-192.5,-192.5,,180,,,,,180
2,M,Egor Opichenok,Егор Опиченок,B,Raw,82.5,Yes,Open,1981-09-25,33,82.5,,,,,155,162.5,-167.5,,162.5,,,,,162.5
3,M,Evgeniy Merkulov,Евгений Меркулов,B,Raw,82.5,Yes,Open,1988-03-19,27,79.6,,,,,127.5,145,-155,,145,,,,,145
1,M,Andrey Roshchupkin,Андрей Рощупкин,B,Raw,90,Yes,Juniors 20-23,1994-07-17,21,89.3,,,,,132.5,-137.5,-137.5,,132.5,,,,,132.5
2,M,Igor Kazakov,Игорь Казаков,B,Raw,90,Yes,Juniors 20-23,1992-06-26,23,85.5,,,,,-117.5,120,-122.5,,120,,,,,120
DQ,M,Nikita Romanov,Никита Романов,B,Raw,90,Yes,Juniors 20-23,1992-03-09,23,88.8,,,,,-165,-170,-175,,,,,,,
1,M,Dmitriy Petrov,Дмитрий Петров,B,Raw,90,Yes,Open,1986-01-29,29,89.8,,,,,180,-190,-190,,180,,,,,180
2,M,Aleksandr Pozdnyakov,Александр Поздняков,B,Raw,90,Yes,Open,1979-07-04,36,84,,,,,165,175,-182.5,,175,,,,,175
3,M,Aleksey Sheykin,Алексей Шейкин,B,Raw,90,Yes,Open,1988-03-24,27,88.5,,,,,160,,,,160,,,,,160
4,M,Sergey Larionov,Сергей Ларионов,B,Raw,90,Yes,Open,1985-05-14,30,90,,,,,150,-157.5,-162.5,,150,,,,,150
1,M,Aleksandr Bukharin,Александр Бухарин,B,Raw,100,Yes,Teen 16-17,1999-02-22,16,98.3,,,,,152.5,155,157.5,160,157.5,,,,,157.5
1,M,Evgeniy Abramov,Евгений Абрамов,B,Raw,100,Yes,Open,1978-10-11,36,98.4,,,,,185,190,-192.5,,190,,,,,190
2,M,Sergey Potapenko,Сергей Потапенко,B,Raw,100,Yes,Open,1988-11-12,26,99,,,,,170,-185,185,,185,,,,,185
3,M,Sergey Kushchev,Сергей Кущев,B,Raw,100,Yes,Open,1983-02-05,32,95.9,,,,,150,162.5,-165,,162.5,,,,,162.5
DQ,M,Konstantin Shevaldin,Константин Шевалдин,B,Raw,100,Yes,Open,1982-05-05,33,96.5,,,,,-155,-160,-160,,,,,,,
DQ,M,Aleksandr Snetkov,Александр Снетков,B,Raw,100,Yes,Open,1987-01-24,28,99,,,,,-175,-175,-175,,,,,,,
1,M,Mikhail Prokopov,Михаил Прокопов,B,Raw,100,Yes,Masters 55-59,1956-06-10,59,96.8,,,,,150,-155,155,,155,,,,,155
1,M,Denis Favorskiy,Денис Фаворский,B,Raw,110,Yes,Open,1971-07-16,44,108.7,,,,,140,152.5,,,152.5,,,,,152.5
1,M,Denis Favorskiy,Денис Фаворский,B,Raw,110,Yes,Masters 40-44,1971-07-16,44,108.7,,,,,140,152.5,,,152.5,,,,,152.5
1,M,Andrey Lukyanov,Андрей Лукьянов,B,Raw,110,Yes,Masters 45-49,1969-01-29,46,105.8,,,,,160,170,-172.5,,170,,,,,170
2,M,Ruslan Kataev,Руслан Катаев,B,Raw,110,Yes,Masters 45-49,1969-04-08,46,107.2,,,,,-160,-160,160,,160,,,,,160
1,M,Igor Kurotchenko,Игорь Куротченко,B,Raw,110,Yes,Masters 50-54,1962-03-20,53,107.5,,,,,140,147.5,152.5,,152.5,,,,,152.5
1,M,Boris Grabovoy,Борис Грабовой,B,Raw,110,Yes,Masters 55-59,1956-01-23,59,106.9,,,,,130,135,-137.5,,135,,,,,135
1,M,Andrey Khramtsov,Андрей Храмцов,B,Raw,125,Yes,Open,1984-09-17,30,125,,,,,190,205,212.5,,212.5,,,,,212.5
1,M,Vladimir Chubarov,Владимир Чубаров,B,Raw,125,Yes,Masters 50-54,1964-04-03,51,116.3,,,,,155,160,-165,,160,,,,,160
1,M,Konstantin Bogdanov,Константин Богданов,B,Raw,140,Yes,Open,1976-05-14,39,137.8,,,,,180,190,-195,,190,,,,,190
1,M,Nikolay Iov,Николай Иов,B,Raw,140+,Yes,Open,1990-09-02,24,151,,,,,-185,-187.5,187.5,,187.5,,,,,187.5
1,F,Darya Ermolaeva,Дарья Ермолаева,D,Raw,60,Yes,Juniors 20-23,1993-04-01,22,58.5,,,,,,,,,,-110,120,132.5,132.5,132.5
DQ,F,Lyudmila Nikonova,Людмила Никонова,D,Raw,60,Yes,Open,1980-04-09,35,59.6,,,,,,,,,,-155,-155,-155,,
1,M,Vitaliy Zheludev,Виталий Желудев,D,Raw,90,Yes,Open,1985-02-09,30,87,,,,,,,,,,260,-270,,260,260
2,M,Dmitriy Konovalov,Дмитрий Коновалов,D,Raw,90,Yes,Open,1991-02-16,24,86.6,,,,,,,,,,222.5,-235,-235,222.5,222.5
1,M,Mikhail Skvortsov,Михаил Скворцов,D,Raw,100,Yes,Teen 13-15,2000-04-01,15,91.6,,,,,,,,,,120,130,135,135,135
1,M,Aleksandr Tarakin,Александр Таракин,D,Raw,100,Yes,Open,1986-02-10,29,96,,,,,,,,,,-260,-260,260,260,260
1,M,Vasiliy Murzakov,Василий Мурзаков,D,Raw,110,Yes,Open,1985-08-01,30,105.8,,,,,,,,,,190,205,-215,205,205
1,M,Andrey Inyutin,Андрей Инютин,D,Raw,140,Yes,Open,1975-08-04,40,128.9,,,,,,,,,,285,302.5,-307.5,302.5,302.5
1,M,Andrey Inyutin,Андрей Инютин,D,Raw,140,Yes,Masters 40-44,1975-08-04,40,128.8,,,,,,,,,,285,302.5,-307.5,302.5,302.5
1,M,Andrey Izvekov,Андрей Извеков,SBD,Multi-ply,125,No,Open,1981-10-15,33,122.1,-280,285,300,300,190,195,-200,,195,240,250,-255,250,745
1,M,Valeriy Kurochkin,Валерий Курочкин,B,Multi-ply,110,Yes,Open,1978-11-09,36,107,,,,,250,-260,-260,,250,,,,,250
DQ,M,Anton Begalko,Антон Бегалко,B,Multi-ply,110,No,Open,1986-11-06,28,110,,,,,-360,-375,-385,,,,,,,
DQ,M,Pavel Chidingov,Павел Чидингов,B,Multi-ply,110,No,Masters 45-49,1969-07-02,46,106.9,,,,,-240,-240,-240,,,,,,,
DQ,M,Stanislav Maksimov,Станислав Максимов,B,Multi-ply,125,No,Masters 45-49,1968-08-04,47,111.3,,,,,-300,-300,-300,,,,,,,
1,F,Anna Zhelyabovskaya,Анна Желябовская,B,Single-ply,60,Yes,Open,1978-06-16,37,59.8,,,,,70,75,-80,,75,,,,,75
1,M,Dmitriy Gollandtsev,Дмитрий Голландцев,B,Single-ply,82.5,No,Open,1978-05-29,37,81.7,,,,,195,-205,-205,,195,,,,,195
1,M,Aleksey Sheykin,Алексей Шейкин,B,Single-ply,90,Yes,Open,1988-03-24,27,88.5,,,,,160,175,-185,,175,,,,,175
1,M,Anton Rud,Антон Рудь,B,Single-ply,100,No,Open,1991-06-18,24,99.6,,,,,-220,-220,220,,220,,,,,220
DQ,M,Andrey Shchennikov,Андрей Щенников,B,Single-ply,100,No,Open,1974-10-14,40,98.8,,,,,-285,-285,-285,,,,,,,
DQ,M,Andrey Shchennikov,Андрей Щенников,B,Single-ply,100,No,Masters 40-44,1974-10-14,40,98.8,,,,,-285,-285,-285,,,,,,,
1,M,Aleksandr Olkhovskiy,Александр Ольховский,B,Single-ply,110,No,Open,1978-12-25,36,110,,,,,250,-267.5,-267.5,,250,,,,,250
2,M,Vladislav Borodiy,Владислав Бородий,B,Single-ply,110,Yes,Open,1982-11-07,32,102.1,,,,,-220,220,-227.5,,220,,,,,220
3,M,Dmitriy Polikarpov,Дмитрий Поликарпов,B,Single-ply,110,No,Open,1979-08-01,36,103.9,,,,,-200,-200,200,,200,,,,,200
DQ,M,Dmitriy Bubyr,Дмитрий Бубырь,B,Single-ply,110,Yes,Open,1981-05-22,34,103.8,,,,,-210,-210,-210,,,,,,,
1,M,Aleksey Samardin,Алексей Самардин,D,Multi-ply,82.5,Yes,Open,1983-09-08,31,78.7,,,,,,,,,,200,212.5,222.5,222.5,222.5
1,M,Artem Artyukhov,Артем Артюхов,D,Multi-ply,110,Yes,Open,1987-04-30,28,109.7,,,,,,,,,,265,-270,,265,265
